<?xml version="1.0" encoding="UTF-8" standalone="no"?>
<!-- Created with Inkscape (http://www.inkscape.org/) -->

<svg
   width="200mm"
   height="200mm"
   viewBox="0 0 200 200"
   version="1.1"
   id="svg5"
   inkscape:version="1.1 (c68e22c387, 2021-05-23)"
   sodipodi:docname="logo.svg"
   xmlns:inkscape="http://www.inkscape.org/namespaces/inkscape"
   xmlns:sodipodi="http://sodipodi.sourceforge.net/DTD/sodipodi-0.dtd"
   xmlns="http://www.w3.org/2000/svg"
   xmlns:svg="http://www.w3.org/2000/svg">
  <sodipodi:namedview
     id="namedview7"
     pagecolor="#ffffff"
     bordercolor="#666666"
     borderopacity="1.0"
     inkscape:pageshadow="2"
     inkscape:pageopacity="0.0"
     inkscape:pagecheckerboard="0"
     inkscape:document-units="mm"
     showgrid="false"
     width="200mm"
     inkscape:zoom="0.73228114"
     inkscape:cx="269.70516"
     inkscape:cy="479.3241"
     inkscape:window-width="1920"
     inkscape:window-height="1002"
     inkscape:window-x="-8"
     inkscape:window-y="-8"
     inkscape:window-maximized="1"
     inkscape:current-layer="layer1" />
  <defs
     id="defs2" />
  <g
     inkscape:label="Layer 1"
     inkscape:groupmode="layer"
     id="layer1">
    <g
       id="g1111"
       transform="translate(-7.2262774,-17.343066)">
      <path
         style="fill:#000000;stroke:none;stroke-width:1;-inkscape-stroke:none;stop-color:#000000"
         id="path857"
         d="m 14.6991,61.481631 c 5.82771,-0.344959 11.591128,-1.286767 17.22676,-2.81399 4.333277,-1.174289 7.495492,-2.326714 11.716192,-3.768076 3.885533,-1.342036 7.684608,-2.90566 11.456945,-4.532564 0,0 2.744552,-2.173274 2.744552,-2.173274 v 0 c -3.870521,1.734023 -7.770135,3.402171 -11.772556,4.815001 -4.318751,1.498221 -7.250552,2.599695 -11.694565,3.790762 -5.396153,1.446255 -10.939166,2.353395 -16.533077,2.39771 0,0 -3.144251,2.284431 -3.144251,2.284431 z" />
      <path
         style="fill:#000000;stroke:none;stroke-width:1;-inkscape-stroke:none;stop-color:#000000"
         id="path859"
         d="m 26.325297,96.94597 c 0.520476,-0.437806 1.031749,-0.886796 1.561431,-1.313418 0.927873,-0.747337 1.875772,-1.469469 2.810667,-2.208001 4.271835,-3.37458 8.511198,-6.759935 13.009146,-9.835904 1.806427,-1.235345 3.659947,-2.400379 5.489922,-3.600569 3.524073,-2.323581 7.230292,-4.318725 10.933218,-6.330688 0,0 2.602381,-2.097333 2.602381,-2.097333 v 0 c -5.516459,3.033302 -10.993371,6.142042 -16.313036,9.512337 -1.846292,1.210759 -3.714898,2.388161 -5.538877,3.632279 -4.60547,3.141345 -8.954474,6.594261 -13.368018,9.992008 -1.006049,0.774502 -2.027994,1.528294 -3.030293,2.307643 -0.584831,0.454742 -1.15379,0.929537 -1.730685,1.394306 0,0 3.574144,-1.45266 3.574144,-1.45266 z" />
      <path
         style="fill:#000000;stroke:none;stroke-width:1;-inkscape-stroke:none;stop-color:#000000"
         id="path861"
         d="m 36.932105,60.191498 c 0.125942,4.376426 0.32458,8.747702 0.728726,13.107879 0.21839,2.091262 0.389919,4.268116 1.305282,6.193052 0.468093,0.950696 1.149429,1.78076 1.786493,2.622698 0.405583,0.526598 0.214471,0.263832 0.575199,0.786945 0,0 3.383862,-1.991693 3.383862,-1.991693 v 0 c -0.375684,-0.536316 -0.17939,-0.270145 -0.589706,-0.797907 -0.626716,-0.819481 -1.282576,-1.634006 -1.75559,-2.554348 -0.947274,-1.83261 -1.164918,-3.951108 -1.441439,-5.963986 -0.488794,-4.36948 -0.74123,-8.766911 -0.535871,-13.164048 0,0 -3.456956,1.761408 -3.456956,1.761408 z" />
      <path
         style="fill:#000000;stroke:none;stroke-width:1;-inkscape-stroke:none;stop-color:#000000"
         id="path863"
         d="m 78.978436,72.915141 c 0.949378,4.671325 1.072338,9.476605 1.235684,14.228633 0.01355,0.614466 0.0319,1.228847 0.04063,1.8434 0.03133,2.204328 -0.571997,3.787523 3.524044,-1.264288 0.373502,-0.460653 0.04773,-1.185495 0.09684,-1.776505 0.06311,-0.759367 0.159811,-1.515568 0.239715,-2.273353 0.42908,-3.437249 0.82033,-6.970061 2.200619,-10.180082 0.17481,-0.233957 0.323434,-0.489992 0.524433,-0.701876 0.17675,-0.186319 0.822338,-0.611835 0.599946,-0.483391 -0.903632,0.521896 -1.858598,0.986674 -2.649665,1.667217 -0.182729,0.157199 0.495618,-0.0896 0.723064,-0.0098 0.875609,0.307253 1.215305,1.117809 1.707777,1.821984 1.687491,3.293885 2.304507,6.966355 2.694932,10.608323 0.09575,0.930765 0.102595,1.865239 0.197241,2.795813 0.02151,0.211407 0.06007,0.737793 0.174501,0.962414 0.04722,0.09269 0.141142,0.152844 0.211712,0.229264 1.248778,-0.677453 2.556531,-1.255975 3.74633,-2.032355 0.07011,-0.04575 0.583449,-1.256982 0.638533,-1.382381 0.352933,-0.803485 0.710699,-1.60337 1.048562,-2.413368 0.264906,-0.605891 0.336423,-1.41047 0.875323,-1.870213 0.181608,-0.154932 0.816089,-0.494673 0.619586,-0.359132 -2.394593,1.651696 -3.139856,1.761098 -0.577993,0.879718 2.172872,-0.751763 4.2938,-1.66883 6.28129,-2.830634 1.66997,-0.976191 4.64878,-2.461884 6.28987,-4.162179 0.32997,-0.341873 0.57467,-0.756824 0.86201,-1.135239 0.13632,-0.342112 0.3684,-0.660305 0.40896,-1.026335 0.1541,-1.39069 -1.41188,-1.491184 -2.35867,-1.332545 -1.27998,0.214469 -1.77131,0.60493 -2.90889,1.216308 -1.48458,0.993572 -3.0706,1.850197 -4.45375,2.980711 -0.43717,0.357325 -0.67355,0.913117 -0.92732,1.4175 -0.706097,1.403393 -1.146136,3.198088 -0.593352,4.730713 0.194987,0.540618 0.569692,0.9983 0.854542,1.497449 0.46524,0.40857 0.8702,0.89829 1.39572,1.225706 4.16061,2.592208 8.95298,0.376447 12.93077,-1.372886 3.06943,-1.769165 6.55039,-3.14671 8.92125,-5.873339 0.66698,-0.767064 1.2183,-1.62858 1.36989,-2.655036 0.0575,-0.389575 -0.0405,-0.786558 -0.0608,-1.179838 -0.22411,-0.334214 -0.37019,-0.736878 -0.67233,-1.002641 -1.1973,-1.053142 -3.93758,-1.293733 -5.4269,-0.91739 -0.40327,0.101905 -0.76625,0.323914 -1.14938,0.48587 -1.36426,0.899155 -2.8159,1.678044 -4.0928,2.697462 -0.29423,0.2349 -0.40012,0.643522 -0.5332,0.995712 -0.3798,1.005054 -0.34879,2.125334 0.12991,3.089804 0.16912,0.340743 0.42054,0.634018 0.63081,0.951026 0.30683,0.272833 0.58201,0.586087 0.92049,0.818497 1.4563,0.999947 3.71021,1.572503 5.45735,1.68576 0.4737,0.0307 0.94931,-0.01143 1.42397,-0.01714 1.62127,-0.21133 3.13273,-0.782621 4.54328,-1.600186 1.57308,-0.911768 3.14043,-1.835452 4.67095,-2.816985 0.16705,-0.107129 2.65972,-2.055476 2.82058,-2.180841 1.18698,-0.981665 2.42014,-1.906066 3.60575,-2.889393 0.2295,-0.190341 1.22361,-1.022204 1.47177,-1.331484 0.10312,-0.128505 0.14761,-0.294605 0.22142,-0.441909 -0.2369,-0.132213 -0.44064,-0.370711 -0.7107,-0.396635 -0.43222,-0.04149 -2.47474,0.518888 -2.75119,0.607169 -1.76888,0.564872 -3.40373,1.371859 -5.03985,2.235171 -2.08999,1.303149 -7.00064,3.05762 -7.04693,6.458116 -0.004,0.325652 0.0934,0.644626 0.14016,0.966939 0.15363,0.290642 0.24621,0.622958 0.46091,0.871929 0.55817,0.647303 1.34683,0.970473 2.18271,1.065194 3.26072,0.369504 6.24174,-2.234335 8.7258,-3.705498 1.79949,-1.683805 2.78122,-2.360133 4.02318,-4.65777 0.78131,-1.4454 1.36635,-2.99145 1.94402,-4.529603 1.2267,-3.266315 2.44332,-7.468782 3.21236,-10.868485 0.38755,-1.713217 0.65082,-3.452199 0.97623,-5.178295 0.34653,-3.724722 0.92175,-7.527502 0.46176,-11.276851 -0.0817,-0.66593 -0.20309,-1.338152 -0.451,-1.961595 -0.1445,-0.36341 -0.33447,-1.071515 -0.70264,-0.939596 -1.59925,0.573029 -2.8679,1.821836 -4.30185,2.732754 -0.25026,0.984599 -0.5495,1.958028 -0.75077,2.953798 -0.52284,2.58672 -0.93523,5.92899 -1.16862,8.531725 -0.24664,2.750516 -0.39246,5.648849 -0.33634,8.414514 0.025,1.234128 0.13725,2.464946 0.20588,3.697418 0.45711,3.593295 0.64285,7.439728 2.22787,10.775264 0.18569,0.390763 0.42981,0.750975 0.64472,1.126464 1.17904,1.58234 2.45914,2.171832 4.25579,2.822643 0,0 3.14395,-2.126125 3.14395,-2.126125 v 0 c -1.72715,-0.584285 -2.95576,-1.108768 -4.10725,-2.601151 -0.21496,-0.354719 -0.45788,-0.693936 -0.64487,-1.064159 -1.60673,-3.181075 -1.96983,-7.048354 -2.47232,-10.509522 -0.0817,-1.216941 -0.20865,-2.431688 -0.24512,-3.650824 -0.12806,-4.280636 0.16617,-8.614852 0.85472,-12.840907 0.22325,-1.370234 0.46815,-2.741017 0.8295,-4.081467 0.26904,-0.997974 0.70443,-1.943474 1.05665,-2.915209 -0.82413,0.237334 -1.81121,0.16577 -2.47239,0.712002 -0.26494,0.21889 0.57963,0.417364 0.73328,0.724778 0.2852,0.570617 0.43873,1.20541 0.54578,1.834288 0.62044,3.645098 0.10599,7.397575 -0.17568,11.038223 -0.30848,1.709206 -0.54606,3.432739 -0.92545,5.127617 -1.12894,5.043511 -2.88152,10.948469 -5.52426,15.425851 -1.35885,2.30219 -2.32459,2.924138 -4.21017,4.59377 0.35311,-0.15744 1.44025,-0.538385 1.05932,-0.472323 -0.61566,0.10677 -1.16641,0.464129 -1.77702,0.596791 -1.11975,0.243277 -2.62804,0.222814 -3.46901,-0.709978 -0.18945,-0.210142 -0.26319,-0.500946 -0.39479,-0.751416 -0.0319,-0.28439 -0.11266,-0.567505 -0.0956,-0.853168 0.0652,-1.09321 0.70927,-1.969103 1.50006,-2.669185 0.33111,-0.293137 1.48066,-0.924277 1.05498,-0.804434 -0.68586,0.193088 -1.24718,0.689401 -1.87077,1.0341 1.60405,-0.879806 3.21046,-1.710018 4.95655,-2.281563 0.47567,-0.155702 0.96562,-0.264165 1.45121,-0.385445 0.36039,-0.09001 0.73748,-0.120819 1.08637,-0.248332 0.12996,-0.0475 0.2128,-0.176914 0.3192,-0.265372 -0.41919,0.6301 -1.03734,1.103042 -1.61421,1.583759 -1.16796,0.973285 -2.377,1.89653 -3.55275,2.860209 -0.46732,0.362365 -0.93117,0.729237 -1.40194,1.087093 -0.47362,0.360027 -1.93076,0.743527 -1.43111,1.066464 0.54057,0.349385 1.11133,-0.666779 1.71835,-0.880811 0.52354,-0.184599 -0.96179,0.557697 -1.46525,0.79157 -0.47775,0.221927 -0.96989,0.416216 -1.47274,0.573199 -0.48014,0.149899 -0.97933,0.230121 -1.46899,0.345183 -0.46344,0.02249 -0.92662,0.08394 -1.39031,0.06743 -1.67375,-0.05958 -3.89228,-0.587634 -5.3026,-1.519602 -0.31418,-0.207616 -0.5703,-0.491948 -0.85545,-0.73792 -0.60941,-0.930305 -1.01752,-1.547061 -0.84097,-2.715739 0.049,-0.324663 0.13719,-0.647698 0.27415,-0.946116 0.14698,-0.320262 0.91846,-0.935813 0.56895,-0.890971 -0.88322,0.11331 -1.61417,0.752406 -2.42126,1.128609 0.36273,-0.196874 0.69653,-0.460475 1.08819,-0.590626 1.30304,-0.433015 4.04651,-0.299787 5.16338,0.588118 0.25932,0.206153 0.38012,0.542668 0.57017,0.814001 0.009,0.346165 0.089,0.697799 0.0271,1.038498 -0.16972,0.93354 -0.72683,1.761574 -1.34614,2.449301 -0.43639,0.4846 -1.21977,0.71992 -1.4271,1.338212 -0.12728,0.379568 0.74802,-0.28561 1.12202,-0.428414 -0.81259,0.455811 -1.62519,0.91162 -2.43778,1.367428 -3.78583,1.72285 -8.50667,4.030681 -12.53415,1.597057 -0.49355,-0.298231 -0.87471,-0.751674 -1.31206,-1.127512 -0.2584,-0.461743 -0.60399,-0.884565 -0.7752,-1.385231 -0.49623,-1.451189 -0.0171,-3.18077 0.7005,-4.46886 0.2664,-0.478155 1.43889,-1.059775 0.96294,-1.33009 -0.60283,-0.342378 -1.28466,0.521706 -1.92698,0.782561 1.20305,-0.715041 2.41919,-1.484161 3.88523,-1.452438 0.23413,0.0051 0.51361,0.01614 0.67845,0.182496 0.43251,0.436489 -0.13705,1.245307 -0.27137,1.549094 -0.27826,0.346797 -0.5193,0.727069 -0.83478,1.040389 -0.41269,0.40985 -1.33726,0.53699 -1.33914,1.118611 -0.002,0.493715 1.7451,-0.914864 1.33758,-0.636149 -1.8436,1.260875 -4.08707,2.033162 -6.158121,2.817127 -2.919738,0.910704 -1.798196,0.455772 -5.994331,2.843811 -0.222234,0.126473 -0.416055,0.305086 -0.582324,0.499348 -0.457891,0.534977 -0.520417,1.308177 -0.813655,1.921872 -0.436208,1.04515 -0.842997,2.172973 -1.435073,3.142377 -0.8157,1.335545 -2.298026,1.457394 2.860563,-1.076817 -0.19917,0.05424 -0.120896,0.06728 -0.200818,-0.309147 -0.229804,-1.082376 -0.194673,-2.204746 -0.377201,-3.293502 -0.507783,-3.675684 -1.194303,-7.371003 -2.80675,-10.744562 -0.533757,-0.858044 -0.850995,-1.695569 -1.787213,-2.182098 -0.247182,-0.128453 -0.568121,-0.247817 -0.824201,-0.138165 -2.632829,1.127371 -3.819337,1.515835 -5.013862,3.531094 -1.209569,3.258966 -1.531342,6.761716 -1.983346,10.185181 -0.100986,0.772546 -0.206451,1.544521 -0.302955,2.317641 -0.07667,0.614193 -0.807895,1.661398 -0.216549,1.844215 4.301342,1.329769 3.349072,-0.565309 3.229536,-2.165022 -0.045,-0.602173 -0.07513,-1.205365 -0.112696,-1.808049 -0.280946,-4.818531 -0.476846,-9.650838 -1.020646,-14.447866 0,0 -3.448429,1.885606 -3.448429,1.885606 z" />
      <path
         style="fill:#000000;stroke:none;stroke-width:1;-inkscape-stroke:none;stop-color:#000000"
         id="path865"
         d="m 49.934523,117.01165 c -3.572901,0.80251 -7.156987,1.57214 -10.70325,2.48832 -1.780281,0.45993 -4.469704,1.13296 -6.143477,2.03833 -1.817878,0.98332 -3.517561,2.17099 -5.276342,3.25648 -0.520681,0.66489 -1.135342,1.26589 -1.562046,1.99466 -1.233883,2.10737 -2.010697,6.1068 -0.717427,8.36355 0.310056,0.54104 0.838278,0.92345 1.257417,1.38517 0.679876,0.2117 1.327875,0.61381 2.039631,0.6351 1.76367,0.0528 4.26847,-0.96755 5.731385,-1.75555 3.353853,-1.80656 5.471147,-3.03992 8.154715,-5.30034 0.697275,-0.58733 1.340771,-1.23569 2.011156,-1.85353 2.244484,-2.25758 4.13053,-4.70642 5.125929,-7.74999 1.482037,-0.63056 -2.289288,0.96839 -3.609932,2.41482 -0.375717,0.41151 -0.07451,1.11291 -0.07189,1.67012 0.0085,1.80103 0.08186,3.02108 0.54936,4.79222 0.220249,0.83442 0.565536,1.63073 0.848304,2.44609 1.437976,2.76453 0.629579,1.48808 2.390656,3.85101 0,0 3.156977,-1.87682 3.156977,-1.87682 v 0 c -1.766594,-2.26541 -0.957239,-1.03459 -2.391926,-3.71598 -0.272063,-0.79927 -0.611564,-1.57869 -0.816192,-2.39782 -0.430615,-1.72378 -0.488665,-3.01611 -0.392102,-4.76793 0.03152,-0.57189 0.767657,-1.56737 0.211725,-1.70517 -5.864527,-1.45367 -4.238347,0.11721 -3.391152,0.94791 -0.881478,2.9181 -2.812563,5.30222 -4.925015,7.44817 -6.921502,6.32658 3.467357,-3.06224 -4.372104,3.63458 -0.06921,0.0591 0.354491,-0.0545 0.272695,-0.0145 -0.940279,0.45914 -1.875306,0.94395 -2.865985,1.28083 -0.833025,0.28326 -1.697582,0.55372 -2.577298,0.57011 -0.652682,0.0122 -1.264621,-0.32449 -1.896933,-0.48674 -0.392777,-0.41398 -0.888251,-0.75051 -1.17833,-1.24195 -1.280832,-2.16993 -0.46519,-5.99778 0.781103,-7.99179 0.434025,-0.69442 1.049869,-1.25705 1.574805,-1.88557 -0.814974,0.23105 -4.668205,1.3596 2.00314,-0.95287 1.102558,-0.38217 2.237978,-0.66324 3.36628,-0.96094 1.884585,-0.49725 5.490194,-1.32926 7.398176,-1.72849 1.01341,-0.21205 2.033447,-0.39108 3.05017,-0.58662 0,0 2.96778,-2.24485 2.96778,-2.24485 z" />
      <path
         style="fill:#ff0000;stroke:none;stroke-width:1;-inkscape-stroke:none;stop-color:#000000"
         id="path966"
         d="m 91.501829,126.4694 c 1.955224,-0.97593 3.983453,-1.95881 6.139694,-2.41166 2.025787,-0.42546 3.679797,-0.75087 5.350127,0.96324 0.99057,1.01653 1.45877,2.43521 2.18816,3.65282 0.49322,1.77367 1.10306,3.51897 1.47965,5.32102 0.4023,1.9251 0.64159,3.88281 0.85237,5.83817 0.61979,5.74948 0.5083,11.54774 0.242,17.31195 -0.031,0.59107 -0.18155,3.1457 -0.17227,3.94847 0.002,0.17265 0.002,1.563 0.37042,1.80513 0.72645,0.47772 1.7289,-0.27397 2.25788,-0.51968 1.64648,-1.0008 3.32169,-1.95582 4.93946,-3.00241 0.56922,-0.36825 3.7386,-2.81205 4.21675,-3.17655 2.02616,-1.54456 4.04072,-3.10221 6.08857,-4.61789 2.26345,-1.62597 4.54814,-3.27658 6.2863,-5.48005 -0.37101,0.0111 0.85481,-0.86841 0.50795,-1.03132 -0.33396,-0.15685 -0.77774,-0.16626 -1.10689,5.3e-4 -1.72488,0.87361 -3.33203,1.96779 -4.92962,3.05688 -1.13868,0.77625 -3.11932,2.69594 -4.1046,3.61422 -0.56632,0.69853 -1.21224,1.33945 -1.69897,2.09561 -1.31574,2.0441 -2.54178,5.75195 -0.73205,7.91715 0.3713,0.44422 0.94418,0.6703 1.41626,1.00545 0.70829,0.064 1.41704,0.26113 2.12485,0.19207 1.58469,-0.15461 3.71502,-1.04423 5.07558,-1.79694 2.16965,-1.20031 5.30514,-2.55543 6.85568,-4.87035 0.37724,-0.56323 0.54027,-1.24349 0.81041,-1.86523 0.0335,-0.63134 0.15034,-1.26374 0.10066,-1.89401 -0.0797,-1.01115 -0.57514,-2.44503 -0.96762,-3.38203 -0.19053,-0.45489 -0.42299,-0.89116 -0.64418,-1.33196 -0.17668,-0.35211 -0.50057,-0.65555 -0.54927,-1.04649 -0.0362,-0.29068 0.21121,-0.54644 0.31682,-0.81967 -0.28179,0.24818 -1.20807,0.84174 -0.84538,0.74452 1.33907,-0.35894 2.55913,-1.06895 3.85852,-1.55219 4.63499,-1.72376 9.39398,-3.19395 14.14874,-4.54934 0.27995,0.005 0.73717,-0.2464 0.83985,0.0141 0.11274,0.28602 -0.37136,0.49069 -0.53939,0.74815 -0.40493,0.62047 -0.77437,1.26362 -1.17872,1.88447 -1.40414,2.15595 -2.89806,4.24712 -4.29043,6.41125 -0.57744,1.00004 -3.15821,4.81344 -0.72972,5.4746 0.33452,0.0911 0.69333,0.0103 1.03999,0.0155 1.5129,-0.85095 3.08962,-1.59729 4.53871,-2.55287 0.49594,-0.32703 0.85867,-0.82297 1.2536,-1.26675 1.45264,-1.63233 2.54881,-3.48474 3.47472,-5.45093 0.8546,-1.75455 0.93511,-3.6575 0.99123,-5.56766 0.0278,-2.09973 0.57711,-1.90009 -3.38798,1.04985 -0.005,0.003 0.40709,1.23462 0.44512,1.35029 0.36819,1.4557 0.69626,2.92074 1.06469,4.37815 0.81639,3.59617 1.74406,7.16956 2.42063,10.79627 0.20102,1.07753 0.4207,2.15363 0.54895,3.24222 0.12443,1.05612 0.13873,2.12232 0.20809,3.18348 -0.19255,1.10145 -0.18011,2.25925 -0.57765,3.30436 -0.98481,2.58896 -2.93294,4.6886 -4.96731,6.47424 -1.03531,0.90873 -2.1195,1.78619 -3.32184,2.45853 -0.16077,0.0899 0.0664,-0.47346 -0.10432,-0.54265 -0.65374,-0.26497 -1.39183,-0.23055 -2.08774,-0.34582 -0.36213,-0.48893 -0.88485,-0.89271 -1.08638,-1.46679 -0.48922,-1.39363 -0.0773,-3.54997 0.3381,-4.83569 1.0731,-3.32113 3.16776,-6.13251 5.17579,-8.92314 4.08742,-5.24844 9.18525,-9.56349 13.97225,-14.14325 2.69755,-2.72529 5.62026,-5.30695 7.90717,-8.40637 -0.11588,-0.13173 -0.19024,-0.47266 -0.34765,-0.39518 -1.46978,0.72341 -2.84858,1.63455 -4.16133,2.61448 -0.42474,0.31705 -0.67976,0.81398 -0.99871,1.2373 -0.66181,0.8784 -1.66275,2.33172 -2.19246,3.28316 -0.32799,0.58911 -0.59221,1.21153 -0.88831,1.81729 -0.18519,0.61028 -0.43317,1.20494 -0.55557,1.83084 -0.23029,1.17763 -0.49112,3.60309 0.98466,4.24978 1.27902,0.56048 2.4319,-0.25144 3.53306,-0.70611 1.68751,-1.09054 3.47301,-2.04264 5.06254,-3.27162 0.68642,-0.53073 1.19237,-1.26635 1.70868,-1.9637 1.33741,-1.80636 2.37386,-3.89033 2.23715,-6.19593 -0.032,-0.53944 -0.22588,-1.05691 -0.33882,-1.58537 -0.95392,-1.99377 -2.03984,-2.34801 -4.04183,-2.66723 -0.95926,0.75515 -2.06069,1.35838 -2.87777,2.26547 -0.26549,0.29474 0.76386,-0.21511 1.14117,-0.33757 0.68149,-0.22119 1.36354,-0.44218 2.03463,-0.69318 3.45177,-1.291 6.83086,-2.78954 10.21637,-4.24142 4.92604,-2.11001 9.84528,-4.23885 14.82621,-6.21693 0,0 2.88501,-2.26989 2.88501,-2.26989 v 0 c -5.04906,2.06394 -10.04011,4.26597 -15.06248,6.39353 -3.29487,1.41013 -6.58929,2.85284 -9.95979,4.07729 -0.62796,0.22813 -1.26409,0.43452 -1.90513,0.62279 -0.34539,0.10144 -0.7425,0.0612 -1.05163,0.24562 -1.21709,0.72622 -2.31491,1.63585 -3.47236,2.45377 1.83125,0.0605 3.05147,0.36267 3.95637,2.14597 0.1104,0.48979 0.29993,0.96826 0.33119,1.46937 0.13787,2.20961 -0.91704,4.23333 -2.23527,5.92902 -0.53129,0.68341 -1.46269,1.09617 -1.76066,1.9089 -0.14277,0.3894 0.79455,-0.23826 1.19182,-0.35739 -0.75674,0.36993 -2.13111,1.30237 -3.1645,1.00629 -1.44276,-0.41335 -1.08626,-2.88248 -0.88474,-3.84496 0.12682,-0.60566 0.37537,-1.1793 0.56306,-1.76895 0.30041,-0.59337 0.56951,-1.20366 0.90124,-1.78011 0.56135,-0.97545 1.55615,-2.38322 2.27145,-3.26157 0.34602,-0.42491 1.64536,-1.21422 1.09747,-1.22396 -2.77991,-0.0494 -2.5302,2.3401 -2.60809,0.77553 -0.70043,1.00864 -1.50384,1.91653 -2.33011,2.82528 -1.68834,1.85688 -3.45497,3.63937 -5.267,5.37553 -4.77502,4.56589 -9.83679,8.89359 -13.86542,14.16824 -2.0348,2.85101 -4.15902,5.73054 -5.24218,9.11718 -0.45138,1.41131 -0.86521,3.66045 -0.30233,5.16339 0.24625,0.65751 0.84871,1.1187 1.27307,1.67805 4.18442,0.72839 2.51427,0.90072 8.30927,-2.4525 1.18648,-0.68655 2.25178,-1.57624 3.26877,-2.49538 2.08855,-1.8876 4.01925,-4.02274 5.0181,-6.71934 0.3982,-1.07505 0.37795,-2.26149 0.56693,-3.39224 -0.0788,-1.06906 -0.10742,-2.14302 -0.23649,-3.20718 -0.13248,-1.09224 -0.35049,-2.17255 -0.54732,-3.25505 -0.66447,-3.65445 -1.5306,-7.26877 -2.19893,-10.92254 -0.27953,-1.50149 -0.49673,-3.02528 -0.93722,-4.49051 -0.0423,-0.13156 -0.26397,-0.81684 -0.30526,-0.96325 -0.0378,-0.13394 0.0318,-0.44912 -0.10027,-0.40529 -3.98143,1.32106 -3.55374,0.50844 -3.53712,2.60328 -0.0451,1.85321 -0.19396,3.6893 -0.99675,5.39426 -0.90771,1.91885 -1.97591,3.75358 -3.46129,5.29469 -0.41707,0.43271 -1.93071,1.11518 -1.33716,1.20938 0.77565,0.12311 1.39248,-0.72673 2.08873,-1.09009 -0.42096,0.0658 -1.06822,0.31857 -1.46342,-0.0829 -0.9835,-0.99897 0.98492,-3.77757 1.38352,-4.58938 1.37851,-2.17667 2.86562,-4.26819 4.29159,-6.41304 0.44765,-0.67333 0.98682,-1.30039 1.30974,-2.04165 0.18713,-0.42958 0.44956,-1.00544 0.1866,-1.39326 -0.20516,-0.3026 -0.73034,0.0351 -1.09551,0.0527 -3.37459,1.03672 -6.73182,2.12862 -10.08326,3.23803 -0.98349,0.32556 -6.84499,2.2492 -7.97355,2.8114 -1.87718,0.93513 -3.62183,2.11553 -5.43275,3.17329 -0.0518,0.35294 -0.227,0.70937 -0.15537,1.05882 0.078,0.38048 0.39599,0.66855 0.57963,1.01079 0.73937,1.37794 1.47288,2.92136 1.57003,4.51327 0.0359,0.58889 -0.0923,1.17634 -0.1385,1.76451 -1.13453,2.40941 -0.36987,1.27636 -2.38313,3.33724 -0.15387,0.27593 1.15622,-0.50807 0.87527,-0.36358 -1.52536,0.7845 -3.14757,1.6262 -4.8796,1.87604 -0.64804,0.0935 -1.3088,-0.0426 -1.9632,-0.0639 -0.4388,-0.27779 -0.97105,-0.4455 -1.3164,-0.83338 -1.76625,-1.98375 -0.46044,-5.61838 0.77675,-7.47562 0.49119,-0.73737 1.13362,-1.36193 1.70043,-2.0429 0.6893,-0.63063 1.35744,-1.28521 2.06792,-1.8919 0.69935,-0.59718 1.67444,-0.93597 2.15905,-1.71755 0.29282,-0.47225 -0.96443,0.71454 -1.51936,0.68588 -0.30897,-0.016 0.33719,-0.52758 0.56667,-0.73508 0.25329,-0.22904 -0.87825,1.54002 -0.50433,0.89176 -1.72087,2.10861 -3.93134,3.70894 -6.1147,5.30616 -2.01708,1.51881 -4.00957,3.0687 -6.02124,4.59472 -0.73002,0.55377 -1.45445,1.11504 -2.19147,1.65945 -0.70244,0.51886 -1.56777,0.85905 -2.12662,1.53013 -0.34037,0.40873 0.95631,-0.46598 1.43446,-0.69897 -0.39532,0.22396 -0.78469,0.45878 -1.18597,0.67187 -0.20472,0.10871 -0.40669,0.35239 -0.63071,0.29285 -0.195,-0.0518 -0.23079,-0.3404 -0.28224,-0.53551 -0.41639,-1.57904 -0.005,-3.29916 -0.16052,-4.89132 0.0443,-5.72387 -0.0315,-11.46202 -0.65973,-17.15894 -0.21744,-1.97189 -0.45011,-3.94587 -0.82302,-5.89434 -0.35413,-1.85029 -0.90345,-3.65783 -1.35517,-5.48675 -0.70481,-1.31001 -1.12434,-2.81979 -2.11442,-3.93002 -0.6866,-0.7699 -1.7086,-1.25878 -2.71498,-1.4854 -0.89408,-0.20132 -1.83626,0.0902 -2.73729,0.25767 -2.09664,0.38962 -4.077885,1.31557 -5.998424,2.19941 0,0 -2.995187,2.41517 -2.995187,2.41517 z" />
      <path
         style="fill:#ff0000;stroke:none;stroke-width:1;-inkscape-stroke:none;stop-color:#000000"
         id="path968"
         d="m 112.88463,181.80307 c 2.75213,-0.46738 3.80345,-0.60145 6.77214,-1.35651 2.37908,-0.60509 15.46419,-4.29672 16.62231,-4.61018 9.34912,-2.53051 10.98933,-2.87424 20.2386,-5.13826 6.99625,-1.54425 9.08932,-2.08525 15.83249,-3.29968 1.86033,-0.33504 3.71365,-0.7503 5.59699,-0.9118 0.83737,-0.0718 2.91867,-0.51905 2.51202,0.21646 -0.76606,1.38563 -2.66878,1.70507 -4.02554,2.52115 -1.94662,1.17087 -3.92232,2.29268 -5.88348,3.43902 -11.98293,6.42966 -7.99967,4.36263 -19.80932,10.42937 -2.74653,1.41092 -5.55388,2.70769 -8.24833,4.21569 -2.72712,1.5263 -5.59092,2.89601 -8.00491,4.8808 -0.72137,0.59312 -1.75137,1.94035 -1.07701,2.5864 1.10682,1.06034 3.02655,0.48734 4.53982,0.73101 2.91665,-0.46074 5.84552,-0.84985 8.74996,-1.38221 3.57394,-0.65509 7.1237,-1.43615 10.68039,-2.17926 6.83269,-1.42758 13.65274,-2.91503 20.48035,-4.36669 0,0 1.96575,-1.49332 1.96575,-1.49332 v 0 c -6.48519,1.43146 -14.10797,3.14265 -20.57965,4.44753 -3.46019,0.69768 -6.91837,1.41429 -10.40164,1.98566 -2.71061,0.44463 -5.44793,0.70733 -8.1719,1.061 -1.32985,-0.11168 -2.90775,0.44641 -3.98955,-0.33505 -0.59652,-0.43092 0.0892,-1.57888 0.57522,-2.1314 0.86377,-0.98188 2.10298,-1.56699 3.24259,-2.20847 2.75869,-1.55285 5.62301,-2.91012 8.43478,-4.36466 13.20168,-6.82925 6.3634,-3.24743 19.66345,-10.29736 3.61282,-2.07083 7.35091,-3.93704 10.83848,-6.2125 1.45306,-0.94804 3.44057,-1.75315 3.9242,-3.41936 0.2726,-0.93918 -1.96306,-0.11086 -2.93384,0.007 -1.9514,0.23766 -3.87302,0.67802 -5.80205,1.05657 -6.82993,1.34033 -9.10969,1.92744 -16.17752,3.54765 -10.5957,2.62742 -9.46635,2.31801 -20.19868,5.10056 -3.39988,0.88149 -11.93187,3.16851 -15.91003,4.08781 -3.13076,0.72348 -3.53761,0.72755 -6.30104,1.10038 0,0 -3.15505,2.29228 -3.15505,2.29228 z" />
    </g>
  </g>
</svg>
